CPU_19_Bit.sim/sim_1/synth/func/xsim/simulate.log
Time resolution is 1 ps
Time = 0, reset = 1, pc_out = xxxxx, alu_out = xxxxx
Time = 0, reset = 1, pc_out = 00000, alu_out = 00000
Time = 20, reset = 0, pc_out = 00000, alu_out = 00000
Time = 105, reset = 0, pc_out = 00001, alu_out = 00000
Time = 115, reset = 0, pc_out = 00002, alu_out = 00000
Time = 125, reset = 0, pc_out = 00003, alu_out = 7ffff
Time = 135, reset = 0, pc_out = 00004, alu_out = 00000
Time = 145, reset = 0, pc_out = 00005, alu_out = 00001
Time = 155, reset = 0, pc_out = 00006, alu_out = 00001
Time = 165, reset = 0, pc_out = 00007, alu_out = 7ffff
Time = 175, reset = 0, pc_out = 00008, alu_out = 00000
Time = 185, reset = 0, pc_out = 00009, alu_out = 00000
Time = 195, reset = 0, pc_out = 0000a, alu_out = 00001
Time = 205, reset = 0, pc_out = 0000b, alu_out = 7ffff
Time = 215, reset = 0, pc_out = 0000c, alu_out = 00001
Time = 225, reset = 0, pc_out = 0000d, alu_out = 00001
Time = 235, reset = 0, pc_out = 0000e, alu_out = 00001
Time = 245, reset = 0, pc_out = 0000f, alu_out = 7ffff
Time = 255, reset = 0, pc_out = 00010, alu_out = 00001
Time = 265, reset = 0, pc_out = 00011, alu_out = 00002
Time = 275, reset = 0, pc_out = 00012, alu_out = 00001
Time = 285, reset = 0, pc_out = 00013, alu_out = 7ffff
Time = 295, reset = 0, pc_out = 00014, alu_out = 00001
Time = 305, reset = 0, pc_out = 00015, alu_out = 00002
Time = 315, reset = 0, pc_out = 00016, alu_out = 00001
Time = 325, reset = 0, pc_out = 00017, alu_out = 7ffff
Time = 335, reset = 0, pc_out = 00018, alu_out = 00001
Time = 345, reset = 0, pc_out = 00019, alu_out = 00002
Time = 355, reset = 0, pc_out = 0001a, alu_out = 00001
Time = 365, reset = 0, pc_out = 0001b, alu_out = 7ffff
Time = 375, reset = 0, pc_out = 0001c, alu_out = 00001
Time = 385, reset = 0, pc_out = 0001d, alu_out = 00002
Time = 395, reset = 0, pc_out = 0001e, alu_out = 00001
Time = 405, reset = 0, pc_out = 0001f, alu_out = 7ffff
Time = 415, reset = 0, pc_out = 00020, alu_out = 00001
Time = 425, reset = 0, pc_out = 00021, alu_out = 00002
Time = 435, reset = 0, pc_out = 00022, alu_out = 00001
Time = 445, reset = 0, pc_out = 00023, alu_out = 7ffff
Time = 455, reset = 0, pc_out = 00024, alu_out = 00001
Time = 465, reset = 0, pc_out = 00025, alu_out = 00002
Time = 475, reset = 0, pc_out = 00026, alu_out = 00001
Time = 485, reset = 0, pc_out = 00027, alu_out = 7ffff
Time = 495, reset = 0, pc_out = 00028, alu_out = 00001
Time = 505, reset = 0, pc_out = 00029, alu_out = 00002
Time = 515, reset = 0, pc_out = 0002a, alu_out = 00001
Time = 525, reset = 0, pc_out = 0002b, alu_out = 7ffff
Time = 535, reset = 0, pc_out = 0002c, alu_out = 00001
Time = 545, reset = 0, pc_out = 0002d, alu_out = 00002
Time = 555, reset = 0, pc_out = 0002e, alu_out = 00001
Time = 565, reset = 0, pc_out = 0002f, alu_out = 7ffff
Time = 575, reset = 0, pc_out = 00030, alu_out = 00001
Time = 585, reset = 0, pc_out = 00031, alu_out = 00002
Time = 595, reset = 0, pc_out = 00032, alu_out = 00001
Time = 605, reset = 0, pc_out = 00033, alu_out = 7ffff
Time = 615, reset = 0, pc_out = 00034, alu_out = 00001
Time = 625, reset = 0, pc_out = 00035, alu_out = 00002
Time = 635, reset = 0, pc_out = 00036, alu_out = 00001
Time = 645, reset = 0, pc_out = 00037, alu_out = 7ffff
Time = 655, reset = 0, pc_out = 00038, alu_out = 00001
Time = 665, reset = 0, pc_out = 00039, alu_out = 00002
$finish called at time : 670 ns : File "C:/Users/surya/CPU_19_Bit/CPU_19_Bit.srcs/sim_1/new/cpu_top_tb.v" Line 70
