CPU_19_Bit.sim/sim_1/behav/xsim/simulate.log
Time resolution is 1 ps
Time = 0 | reset = 1 | pc_out = 00000 | alu_out = 00000
Time = 10 | alu_en = 0 | opcode = 000000 | r2 =      0 | r3 =      0 | r1 =      0 | FLAG = 00000000
Time = 10 | reset = 0 | pc_out = 00000 | alu_out = 00000
Time = 15 | reset = 0 | pc_out = 00001 | alu_out = 00000
Time = 20 | alu_en = 1 | opcode = 000001 | r2 =     10 | r3 =     15 | r1 =      0 | FLAG = 00000000
Time = 25 | alu_en = 1 | opcode = 000001 | r2 =     10 | r3 =     15 | r1 =     25 | FLAG = 00000000
Time = 25 | reset = 0 | pc_out = 00002 | alu_out = 00019
ADD: r2=    10, r3=    15, r1=    25, FLAG=00000000
Time = 35 | reset = 0 | pc_out = 00003 | alu_out = 00019
Time = 40 | alu_en = 1 | opcode = 000010 | r2 =     20 | r3 =      5 | r1 =     25 | FLAG = 00000000
Time = 45 | alu_en = 1 | opcode = 000010 | r2 =     20 | r3 =      5 | r1 =     15 | FLAG = 00000000
Time = 45 | reset = 0 | pc_out = 00004 | alu_out = 0000f
SUB: r2=    20, r3=     5, r1=    15, FLAG=00000000
Time = 55 | reset = 0 | pc_out = 00005 | alu_out = 0000f
Time = 60 | alu_en = 1 | opcode = 000011 | r2 =      3 | r3 =      4 | r1 =     15 | FLAG = 00000000
Time = 65 | alu_en = 1 | opcode = 000011 | r2 =      3 | r3 =      4 | r1 =     12 | FLAG = 00000000
Time = 65 | reset = 0 | pc_out = 00006 | alu_out = 0000c
MUL: r2=     3, r3=     4, r1=    12, FLAG=00000000
Time = 75 | reset = 0 | pc_out = 00007 | alu_out = 0000c
Time = 80 | alu_en = 1 | opcode = 000100 | r2 =     40 | r3 =      8 | r1 =     12 | FLAG = 00000000
Time = 85 | alu_en = 1 | opcode = 000100 | r2 =     40 | r3 =      8 | r1 =      1 | FLAG = 00000000
Time = 85 | reset = 0 | pc_out = 00008 | alu_out = 00001
DIV: r2=    40, r3=     8, r1=     1, FLAG=00000000
Time = 95 | reset = 0 | pc_out = 00009 | alu_out = 00001
Time = 100 | alu_en = 1 | opcode = 000100 | r2 =     10 | r3 =      0 | r1 =      1 | FLAG = 00000000
Time = 105 | alu_en = 1 | opcode = 000100 | r2 =     10 | r3 =      0 | r1 =      0 | FLAG = 00000001
Time = 105 | reset = 0 | pc_out = 0000a | alu_out = 00000
DIV (Divide by Zero): r2=    10, r3=     0, r1=     0, FLAG=00000001
Time = 115 | reset = 0 | pc_out = 0000b | alu_out = 00000
Time = 120 | alu_en = 1 | opcode = 000111 | r2 = 349525 | r3 = 419430 | r1 =      0 | FLAG = 00000001
Time = 125 | alu_en = 1 | opcode = 000111 | r2 = 349525 | r3 = 419430 | r1 = 279620 | FLAG = 10000000
Time = 125 | reset = 0 | pc_out = 0000c | alu_out = 44444
AND: r2=1010101010101010101, r3=1100110011001100110, r1=1000100010001000100, FLAG=10000000
Time = 135 | reset = 0 | pc_out = 0000d | alu_out = 44444
Time = 140 | alu_en = 1 | opcode = 001000 | r2 = 349525 | r3 = 419430 | r1 = 279620 | FLAG = 10000000
Time = 145 | alu_en = 1 | opcode = 001000 | r2 = 349525 | r3 = 419430 | r1 = 489335 | FLAG = 10000000
Time = 145 | reset = 0 | pc_out = 0000e | alu_out = 77777
OR: r2=1010101010101010101, r3=1100110011001100110, r1=1110111011101110111, FLAG=10000000
Time = 155 | reset = 0 | pc_out = 0000f | alu_out = 77777
Time = 160 | alu_en = 1 | opcode = 001001 | r2 = 349525 | r3 = 419430 | r1 = 489335 | FLAG = 10000000
Time = 165 | alu_en = 1 | opcode = 001001 | r2 = 349525 | r3 = 419430 | r1 = 209715 | FLAG = 00000000
Time = 165 | reset = 0 | pc_out = 00010 | alu_out = 33333
XOR: r2=1010101010101010101, r3=1100110011001100110, r1=0110011001100110011, FLAG=00000000
Time = 175 | reset = 0 | pc_out = 00011 | alu_out = 33333
Time = 180 | alu_en = 1 | opcode = 001011 | r2 = 349525 | r3 = 419430 | r1 = 209715 | FLAG = 00000000
Time = 185 | alu_en = 1 | opcode = 001011 | r2 = 349525 | r3 = 419430 | r1 = 174762 | FLAG = 01000000
Time = 185 | reset = 0 | pc_out = 00012 | alu_out = 2aaaa
NOT: r2=1010101010101010101, r1=0101010101010101010, FLAG=01000000
Time = 195 | reset = 0 | pc_out = 00013 | alu_out = 2aaaa
Time = 200 | alu_en = 1 | opcode = 111111 | r2 = 349525 | r3 = 419430 | r1 = 174762 | FLAG = 01000000
Warning: Unsupported Opcode - 111111
Time = 205 | alu_en = 1 | opcode = 111111 | r2 = 349525 | r3 = 419430 | r1 =      0 | FLAG = 00000000
Time = 205 | reset = 0 | pc_out = 00014 | alu_out = 00000
Default: r2=349525, r3=419430, r1=     0, FLAG=00000000
Warning: Unsupported Opcode - 111111
Time = 215 | reset = 0 | pc_out = 00015 | alu_out = 00000
Time = 220 | alu_en = 0 | opcode = 111111 | r2 = 349525 | r3 = 419430 | r1 =      0 | FLAG = 00000000
Time = 225 | reset = 0 | pc_out = 00016 | alu_out = 00000
$stop called at time : 230 ns : File "C:/Users/surya/CPU_19_Bit/CPU_19_Bit.srcs/sim_1/new/cpu_top_tb.v" Line 131
Time = 235 | reset = 0 | pc_out = 00017 | alu_out = 00000
Time = 245 | reset = 0 | pc_out = 00018 | alu_out = 00000
Time = 255 | reset = 0 | pc_out = 00019 | alu_out = 00000
Time = 265 | reset = 0 | pc_out = 0001a | alu_out = 00000
Time = 275 | reset = 0 | pc_out = 0001b | alu_out = 00000
Time = 285 | reset = 0 | pc_out = 0001c | alu_out = 00000
Time = 295 | reset = 0 | pc_out = 0001d | alu_out = 00000
Time = 305 | reset = 0 | pc_out = 0001e | alu_out = 00000
Time = 315 | reset = 0 | pc_out = 0001f | alu_out = 00000
Time = 325 | reset = 0 | pc_out = 00020 | alu_out = 00000
Time = 335 | reset = 0 | pc_out = 00021 | alu_out = 00000
Time = 345 | reset = 0 | pc_out = 00022 | alu_out = 00000
Time = 355 | reset = 0 | pc_out = 00023 | alu_out = 00000
Time = 365 | reset = 0 | pc_out = 00024 | alu_out = 00000
Time = 375 | reset = 0 | pc_out = 00025 | alu_out = 00000
Time = 385 | reset = 0 | pc_out = 00026 | alu_out = 00000
Time = 395 | reset = 0 | pc_out = 00027 | alu_out = 00000
Time = 405 | reset = 0 | pc_out = 00028 | alu_out = 00000
Time = 415 | reset = 0 | pc_out = 00029 | alu_out = 00000
Time = 425 | reset = 0 | pc_out = 0002a | alu_out = 00000
Time = 435 | reset = 0 | pc_out = 0002b | alu_out = 00000
Time = 445 | reset = 0 | pc_out = 0002c | alu_out = 00000
Time = 455 | reset = 0 | pc_out = 0002d | alu_out = 00000
Time = 465 | reset = 0 | pc_out = 0002e | alu_out = 00000
Time = 475 | reset = 0 | pc_out = 0002f | alu_out = 00000
Time = 485 | reset = 0 | pc_out = 00030 | alu_out = 00000
Time = 495 | reset = 0 | pc_out = 00031 | alu_out = 00000
Time = 505 | reset = 0 | pc_out = 00032 | alu_out = 00000
Time = 515 | reset = 0 | pc_out = 00033 | alu_out = 00000
Time = 525 | reset = 0 | pc_out = 00034 | alu_out = 00000
Time = 535 | reset = 0 | pc_out = 00035 | alu_out = 00000
Time = 545 | reset = 0 | pc_out = 00036 | alu_out = 00000
Time = 555 | reset = 0 | pc_out = 00037 | alu_out = 00000
Time = 565 | reset = 0 | pc_out = 00038 | alu_out = 00000
Time = 575 | reset = 0 | pc_out = 00039 | alu_out = 00000
Time = 585 | reset = 0 | pc_out = 0003a | alu_out = 00000
Time = 595 | reset = 0 | pc_out = 0003b | alu_out = 00000
Time = 605 | reset = 0 | pc_out = 0003c | alu_out = 00000
Time = 615 | reset = 0 | pc_out = 0003d | alu_out = 00000
Time = 625 | reset = 0 | pc_out = 0003e | alu_out = 00000
Time = 635 | reset = 0 | pc_out = 0003f | alu_out = 00000
Time = 645 | reset = 0 | pc_out = 00040 | alu_out = 00000
Time = 655 | reset = 0 | pc_out = 00041 | alu_out = 00000
Time = 665 | reset = 0 | pc_out = 00042 | alu_out = 00000
Time = 675 | reset = 0 | pc_out = 00043 | alu_out = 00000
Time = 685 | reset = 0 | pc_out = 00044 | alu_out = 00000
Time = 695 | reset = 0 | pc_out = 00045 | alu_out = 00000
Time = 705 | reset = 0 | pc_out = 00046 | alu_out = 00000
Time = 715 | reset = 0 | pc_out = 00047 | alu_out = 00000
Time = 725 | reset = 0 | pc_out = 00048 | alu_out = 00000
Time = 735 | reset = 0 | pc_out = 00049 | alu_out = 00000
Time = 745 | reset = 0 | pc_out = 0004a | alu_out = 00000
Time = 755 | reset = 0 | pc_out = 0004b | alu_out = 00000
Time = 765 | reset = 0 | pc_out = 0004c | alu_out = 00000
Time = 775 | reset = 0 | pc_out = 0004d | alu_out = 00000
Time = 785 | reset = 0 | pc_out = 0004e | alu_out = 00000
Time = 795 | reset = 0 | pc_out = 0004f | alu_out = 00000
Time = 805 | reset = 0 | pc_out = 00050 | alu_out = 00000
Time = 815 | reset = 0 | pc_out = 00051 | alu_out = 00000
Time = 825 | reset = 0 | pc_out = 00052 | alu_out = 00000
Time = 835 | reset = 0 | pc_out = 00053 | alu_out = 00000
Time = 845 | reset = 0 | pc_out = 00054 | alu_out = 00000
Time = 855 | reset = 0 | pc_out = 00055 | alu_out = 00000
Time = 865 | reset = 0 | pc_out = 00056 | alu_out = 00000
Time = 875 | reset = 0 | pc_out = 00057 | alu_out = 00000
Time = 885 | reset = 0 | pc_out = 00058 | alu_out = 00000
Time = 895 | reset = 0 | pc_out = 00059 | alu_out = 00000
Time = 905 | reset = 0 | pc_out = 0005a | alu_out = 00000
Time = 915 | reset = 0 | pc_out = 0005b | alu_out = 00000
Time = 925 | reset = 0 | pc_out = 0005c | alu_out = 00000
Time = 935 | reset = 0 | pc_out = 0005d | alu_out = 00000
Time = 945 | reset = 0 | pc_out = 0005e | alu_out = 00000
Time = 955 | reset = 0 | pc_out = 0005f | alu_out = 00000
Time = 965 | reset = 0 | pc_out = 00060 | alu_out = 00000
Time = 975 | reset = 0 | pc_out = 00061 | alu_out = 00000
Time = 985 | reset = 0 | pc_out = 00062 | alu_out = 00000
Time = 995 | reset = 0 | pc_out = 00063 | alu_out = 00000
Time = 1005 | reset = 0 | pc_out = 00064 | alu_out = 00000
Time = 1015 | reset = 0 | pc_out = 00065 | alu_out = 00000
Time = 1025 | reset = 0 | pc_out = 00066 | alu_out = 00000
Time = 1035 | reset = 0 | pc_out = 00067 | alu_out = 00000
Time = 1045 | reset = 0 | pc_out = 00068 | alu_out = 00000
Time = 1055 | reset = 0 | pc_out = 00069 | alu_out = 00000
Time = 1065 | reset = 0 | pc_out = 0006a | alu_out = 00000
Time = 1075 | reset = 0 | pc_out = 0006b | alu_out = 00000
Time = 1085 | reset = 0 | pc_out = 0006c | alu_out = 00000
Time = 1095 | reset = 0 | pc_out = 0006d | alu_out = 00000
Time = 1105 | reset = 0 | pc_out = 0006e | alu_out = 00000
Time = 1115 | reset = 0 | pc_out = 0006f | alu_out = 00000
Time = 1125 | reset = 0 | pc_out = 00070 | alu_out = 00000
Time = 1135 | reset = 0 | pc_out = 00071 | alu_out = 00000
Time = 1145 | reset = 0 | pc_out = 00072 | alu_out = 00000
Time = 1155 | reset = 0 | pc_out = 00073 | alu_out = 00000
Time = 1165 | reset = 0 | pc_out = 00074 | alu_out = 00000
Time = 1175 | reset = 0 | pc_out = 00075 | alu_out = 00000
Time = 1185 | reset = 0 | pc_out = 00076 | alu_out = 00000
Time = 1195 | reset = 0 | pc_out = 00077 | alu_out = 00000
Time = 1205 | reset = 0 | pc_out = 00078 | alu_out = 00000
Time = 1215 | reset = 0 | pc_out = 00079 | alu_out = 00000
Time = 1225 | reset = 0 | pc_out = 0007a | alu_out = 00000
Time = 1235 | reset = 0 | pc_out = 0007b | alu_out = 00000
Time = 1245 | reset = 0 | pc_out = 0007c | alu_out = 00000
Time = 1255 | reset = 0 | pc_out = 0007d | alu_out = 00000
Time = 1265 | reset = 0 | pc_out = 0007e | alu_out = 00000
Time = 1275 | reset = 0 | pc_out = 0007f | alu_out = 00000
Time = 1285 | reset = 0 | pc_out = 00080 | alu_out = 00000
Time = 1295 | reset = 0 | pc_out = 00081 | alu_out = 00000
Time = 1305 | reset = 0 | pc_out = 00082 | alu_out = 00000
Time = 1315 | reset = 0 | pc_out = 00083 | alu_out = 00000
Time = 1325 | reset = 0 | pc_out = 00084 | alu_out = 00000
Time = 1335 | reset = 0 | pc_out = 00085 | alu_out = 00000
Time = 1345 | reset = 0 | pc_out = 00086 | alu_out = 00000
Time = 1355 | reset = 0 | pc_out = 00087 | alu_out = 00000
Time = 1365 | reset = 0 | pc_out = 00088 | alu_out = 00000
Time = 1375 | reset = 0 | pc_out = 00089 | alu_out = 00000
Time = 1385 | reset = 0 | pc_out = 0008a | alu_out = 00000
Time = 1395 | reset = 0 | pc_out = 0008b | alu_out = 00000
Time = 1405 | reset = 0 | pc_out = 0008c | alu_out = 00000
Time = 1415 | reset = 0 | pc_out = 0008d | alu_out = 00000
Time = 1425 | reset = 0 | pc_out = 0008e | alu_out = 00000
Time = 1435 | reset = 0 | pc_out = 0008f | alu_out = 00000
Time = 1445 | reset = 0 | pc_out = 00090 | alu_out = 00000
Time = 1455 | reset = 0 | pc_out = 00091 | alu_out = 00000
Time = 1465 | reset = 0 | pc_out = 00092 | alu_out = 00000
Time = 1475 | reset = 0 | pc_out = 00093 | alu_out = 00000
Time = 1485 | reset = 0 | pc_out = 00094 | alu_out = 00000
Time = 1495 | reset = 0 | pc_out = 00095 | alu_out = 00000
Time = 1505 | reset = 0 | pc_out = 00096 | alu_out = 00000
Time = 1515 | reset = 0 | pc_out = 00097 | alu_out = 00000
Time = 1525 | reset = 0 | pc_out = 00098 | alu_out = 00000
Time = 1535 | reset = 0 | pc_out = 00099 | alu_out = 00000
Time = 1545 | reset = 0 | pc_out = 0009a | alu_out = 00000
Time = 1555 | reset = 0 | pc_out = 0009b | alu_out = 00000
Time = 1565 | reset = 0 | pc_out = 0009c | alu_out = 00000
Time = 1575 | reset = 0 | pc_out = 0009d | alu_out = 00000
Time = 1585 | reset = 0 | pc_out = 0009e | alu_out = 00000
Time = 1595 | reset = 0 | pc_out = 0009f | alu_out = 00000
Time = 1605 | reset = 0 | pc_out = 000a0 | alu_out = 00000
Time = 1615 | reset = 0 | pc_out = 000a1 | alu_out = 00000
Time = 1625 | reset = 0 | pc_out = 000a2 | alu_out = 00000
Time = 1635 | reset = 0 | pc_out = 000a3 | alu_out = 00000
Time = 1645 | reset = 0 | pc_out = 000a4 | alu_out = 00000
Time = 1655 | reset = 0 | pc_out = 000a5 | alu_out = 00000
Time = 1665 | reset = 0 | pc_out = 000a6 | alu_out = 00000
Time = 1675 | reset = 0 | pc_out = 000a7 | alu_out = 00000
Time = 1685 | reset = 0 | pc_out = 000a8 | alu_out = 00000
Time = 1695 | reset = 0 | pc_out = 000a9 | alu_out = 00000
Time = 1705 | reset = 0 | pc_out = 000aa | alu_out = 00000
Time = 1715 | reset = 0 | pc_out = 000ab | alu_out = 00000
Time = 1725 | reset = 0 | pc_out = 000ac | alu_out = 00000
Time = 1735 | reset = 0 | pc_out = 000ad | alu_out = 00000
Time = 1745 | reset = 0 | pc_out = 000ae | alu_out = 00000
Time = 1755 | reset = 0 | pc_out = 000af | alu_out = 00000
Time = 1765 | reset = 0 | pc_out = 000b0 | alu_out = 00000
Time = 1775 | reset = 0 | pc_out = 000b1 | alu_out = 00000
Time = 1785 | reset = 0 | pc_out = 000b2 | alu_out = 00000
Time = 1795 | reset = 0 | pc_out = 000b3 | alu_out = 00000
Time = 1805 | reset = 0 | pc_out = 000b4 | alu_out = 00000
Time = 1815 | reset = 0 | pc_out = 000b5 | alu_out = 00000
Time = 1825 | reset = 0 | pc_out = 000b6 | alu_out = 00000
Time = 1835 | reset = 0 | pc_out = 000b7 | alu_out = 00000
Time = 1845 | reset = 0 | pc_out = 000b8 | alu_out = 00000
Time = 1855 | reset = 0 | pc_out = 000b9 | alu_out = 00000
Time = 1865 | reset = 0 | pc_out = 000ba | alu_out = 00000
Time = 1875 | reset = 0 | pc_out = 000bb | alu_out = 00000
Time = 1885 | reset = 0 | pc_out = 000bc | alu_out = 00000
Time = 1895 | reset = 0 | pc_out = 000bd | alu_out = 00000
Time = 1905 | reset = 0 | pc_out = 000be | alu_out = 00000
Time = 1915 | reset = 0 | pc_out = 000bf | alu_out = 00000
Time = 1925 | reset = 0 | pc_out = 000c0 | alu_out = 00000
Time = 1935 | reset = 0 | pc_out = 000c1 | alu_out = 00000
Time = 1945 | reset = 0 | pc_out = 000c2 | alu_out = 00000
Time = 1955 | reset = 0 | pc_out = 000c3 | alu_out = 00000
Time = 1965 | reset = 0 | pc_out = 000c4 | alu_out = 00000
Time = 1975 | reset = 0 | pc_out = 000c5 | alu_out = 00000
Time = 1985 | reset = 0 | pc_out = 000c6 | alu_out = 00000
Time = 1995 | reset = 0 | pc_out = 000c7 | alu_out = 00000
Time = 2005 | reset = 0 | pc_out = 000c8 | alu_out = 00000
Time = 2015 | reset = 0 | pc_out = 000c9 | alu_out = 00000
Time = 2025 | reset = 0 | pc_out = 000ca | alu_out = 00000
Time = 2035 | reset = 0 | pc_out = 000cb | alu_out = 00000
Time = 2045 | reset = 0 | pc_out = 000cc | alu_out = 00000
Time = 2055 | reset = 0 | pc_out = 000cd | alu_out = 00000
Time = 2065 | reset = 0 | pc_out = 000ce | alu_out = 00000
Time = 2075 | reset = 0 | pc_out = 000cf | alu_out = 00000
Time = 2085 | reset = 0 | pc_out = 000d0 | alu_out = 00000
Time = 2095 | reset = 0 | pc_out = 000d1 | alu_out = 00000
Time = 2105 | reset = 0 | pc_out = 000d2 | alu_out = 00000
Time = 2115 | reset = 0 | pc_out = 000d3 | alu_out = 00000
Time = 2125 | reset = 0 | pc_out = 000d4 | alu_out = 00000
Time = 2135 | reset = 0 | pc_out = 000d5 | alu_out = 00000
Time = 2145 | reset = 0 | pc_out = 000d6 | alu_out = 00000
Time = 2155 | reset = 0 | pc_out = 000d7 | alu_out = 00000
Time = 2165 | reset = 0 | pc_out = 000d8 | alu_out = 00000
Time = 2175 | reset = 0 | pc_out = 000d9 | alu_out = 00000
Time = 2185 | reset = 0 | pc_out = 000da | alu_out = 00000
Time = 2195 | reset = 0 | pc_out = 000db | alu_out = 00000
Time = 2205 | reset = 0 | pc_out = 000dc | alu_out = 00000
Time = 2215 | reset = 0 | pc_out = 000dd | alu_out = 00000
Time = 2225 | reset = 0 | pc_out = 000de | alu_out = 00000
Time = 2235 | reset = 0 | pc_out = 000df | alu_out = 00000
Time = 2245 | reset = 0 | pc_out = 000e0 | alu_out = 00000
Time = 2255 | reset = 0 | pc_out = 000e1 | alu_out = 00000
Time = 2265 | reset = 0 | pc_out = 000e2 | alu_out = 00000
Time = 2275 | reset = 0 | pc_out = 000e3 | alu_out = 00000
Time = 2285 | reset = 0 | pc_out = 000e4 | alu_out = 00000
Time = 2295 | reset = 0 | pc_out = 000e5 | alu_out = 00000
Time = 2305 | reset = 0 | pc_out = 000e6 | alu_out = 00000
Time = 2315 | reset = 0 | pc_out = 000e7 | alu_out = 00000
Time = 2325 | reset = 0 | pc_out = 000e8 | alu_out = 00000
Time = 2335 | reset = 0 | pc_out = 000e9 | alu_out = 00000
Time = 2345 | reset = 0 | pc_out = 000ea | alu_out = 00000
Time = 2355 | reset = 0 | pc_out = 000eb | alu_out = 00000
Time = 2365 | reset = 0 | pc_out = 000ec | alu_out = 00000
Time = 2375 | reset = 0 | pc_out = 000ed | alu_out = 00000
Time = 2385 | reset = 0 | pc_out = 000ee | alu_out = 00000
Time = 2395 | reset = 0 | pc_out = 000ef | alu_out = 00000
Time = 2405 | reset = 0 | pc_out = 000f0 | alu_out = 00000
Time = 2415 | reset = 0 | pc_out = 000f1 | alu_out = 00000
Time = 2425 | reset = 0 | pc_out = 000f2 | alu_out = 00000
Time = 2435 | reset = 0 | pc_out = 000f3 | alu_out = 00000
Time = 2445 | reset = 0 | pc_out = 000f4 | alu_out = 00000
Time = 2455 | reset = 0 | pc_out = 000f5 | alu_out = 00000
Time = 2465 | reset = 0 | pc_out = 000f6 | alu_out = 00000
Time = 2475 | reset = 0 | pc_out = 000f7 | alu_out = 00000
Time = 2485 | reset = 0 | pc_out = 000f8 | alu_out = 00000
Time = 2495 | reset = 0 | pc_out = 000f9 | alu_out = 00000
Time = 2505 | reset = 0 | pc_out = 000fa | alu_out = 00000
Time = 2515 | reset = 0 | pc_out = 000fb | alu_out = 00000
Time = 2525 | reset = 0 | pc_out = 000fc | alu_out = 00000
Time = 2535 | reset = 0 | pc_out = 000fd | alu_out = 00000
Time = 2545 | reset = 0 | pc_out = 000fe | alu_out = 00000
Time = 2555 | reset = 0 | pc_out = 000ff | alu_out = 00000
Time = 2565 | reset = 0 | pc_out = 00100 | alu_out = 00000
Time = 2575 | reset = 0 | pc_out = 00101 | alu_out = 00000
Time = 2585 | reset = 0 | pc_out = 00102 | alu_out = 00000
Time = 2595 | reset = 0 | pc_out = 00103 | alu_out = 00000
Time = 2605 | reset = 0 | pc_out = 00104 | alu_out = 00000
Time = 2615 | reset = 0 | pc_out = 00105 | alu_out = 00000
Time = 2625 | reset = 0 | pc_out = 00106 | alu_out = 00000
Time = 2635 | reset = 0 | pc_out = 00107 | alu_out = 00000
Time = 2645 | reset = 0 | pc_out = 00108 | alu_out = 00000
Time = 2655 | reset = 0 | pc_out = 00109 | alu_out = 00000
Time = 2665 | reset = 0 | pc_out = 0010a | alu_out = 00000
Time = 2675 | reset = 0 | pc_out = 0010b | alu_out = 00000
Time = 2685 | reset = 0 | pc_out = 0010c | alu_out = 00000
Time = 2695 | reset = 0 | pc_out = 0010d | alu_out = 00000
Time = 2705 | reset = 0 | pc_out = 0010e | alu_out = 00000
Time = 2715 | reset = 0 | pc_out = 0010f | alu_out = 00000
Time = 2725 | reset = 0 | pc_out = 00110 | alu_out = 00000
Time = 2735 | reset = 0 | pc_out = 00111 | alu_out = 00000
Time = 2745 | reset = 0 | pc_out = 00112 | alu_out = 00000
Time = 2755 | reset = 0 | pc_out = 00113 | alu_out = 00000
Time = 2765 | reset = 0 | pc_out = 00114 | alu_out = 00000
Time = 2775 | reset = 0 | pc_out = 00115 | alu_out = 00000
Time = 2785 | reset = 0 | pc_out = 00116 | alu_out = 00000
Time = 2795 | reset = 0 | pc_out = 00117 | alu_out = 00000
Time = 2805 | reset = 0 | pc_out = 00118 | alu_out = 00000
Time = 2815 | reset = 0 | pc_out = 00119 | alu_out = 00000
Time = 2825 | reset = 0 | pc_out = 0011a | alu_out = 00000
Time = 2835 | reset = 0 | pc_out = 0011b | alu_out = 00000
Time = 2845 | reset = 0 | pc_out = 0011c | alu_out = 00000
Time = 2855 | reset = 0 | pc_out = 0011d | alu_out = 00000
Time = 2865 | reset = 0 | pc_out = 0011e | alu_out = 00000
Time = 2875 | reset = 0 | pc_out = 0011f | alu_out = 00000
Time = 2885 | reset = 0 | pc_out = 00120 | alu_out = 00000
Time = 2895 | reset = 0 | pc_out = 00121 | alu_out = 00000
Time = 2905 | reset = 0 | pc_out = 00122 | alu_out = 00000
Time = 2915 | reset = 0 | pc_out = 00123 | alu_out = 00000
Time = 2925 | reset = 0 | pc_out = 00124 | alu_out = 00000
Time = 2935 | reset = 0 | pc_out = 00125 | alu_out = 00000
Time = 2945 | reset = 0 | pc_out = 00126 | alu_out = 00000
Time = 2955 | reset = 0 | pc_out = 00127 | alu_out = 00000
Time = 2965 | reset = 0 | pc_out = 00128 | alu_out = 00000
Time = 2975 | reset = 0 | pc_out = 00129 | alu_out = 00000
Time = 2985 | reset = 0 | pc_out = 0012a | alu_out = 00000
Time = 2995 | reset = 0 | pc_out = 0012b | alu_out = 00000
Time = 3005 | reset = 0 | pc_out = 0012c | alu_out = 00000
Time = 3015 | reset = 0 | pc_out = 0012d | alu_out = 00000
Time = 3025 | reset = 0 | pc_out = 0012e | alu_out = 00000
Time = 3035 | reset = 0 | pc_out = 0012f | alu_out = 00000
Time = 3045 | reset = 0 | pc_out = 00130 | alu_out = 00000
Time = 3055 | reset = 0 | pc_out = 00131 | alu_out = 00000
Time = 3065 | reset = 0 | pc_out = 00132 | alu_out = 00000
Time = 3075 | reset = 0 | pc_out = 00133 | alu_out = 00000
Time = 3085 | reset = 0 | pc_out = 00134 | alu_out = 00000
Time = 3095 | reset = 0 | pc_out = 00135 | alu_out = 00000
Time = 3105 | reset = 0 | pc_out = 00136 | alu_out = 00000
Time = 3115 | reset = 0 | pc_out = 00137 | alu_out = 00000
Time = 3125 | reset = 0 | pc_out = 00138 | alu_out = 00000
Time = 3135 | reset = 0 | pc_out = 00139 | alu_out = 00000
Time = 3145 | reset = 0 | pc_out = 0013a | alu_out = 00000
Time = 3155 | reset = 0 | pc_out = 0013b | alu_out = 00000
Time = 3165 | reset = 0 | pc_out = 0013c | alu_out = 00000
Time = 3175 | reset = 0 | pc_out = 0013d | alu_out = 00000
Time = 3185 | reset = 0 | pc_out = 0013e | alu_out = 00000
Time = 3195 | reset = 0 | pc_out = 0013f | alu_out = 00000
Time = 3205 | reset = 0 | pc_out = 00140 | alu_out = 00000
Time = 3215 | reset = 0 | pc_out = 00141 | alu_out = 00000
Time = 3225 | reset = 0 | pc_out = 00142 | alu_out = 00000
Time = 3235 | reset = 0 | pc_out = 00143 | alu_out = 00000
Time = 3245 | reset = 0 | pc_out = 00144 | alu_out = 00000
Time = 3255 | reset = 0 | pc_out = 00145 | alu_out = 00000
Time = 3265 | reset = 0 | pc_out = 00146 | alu_out = 00000
Time = 3275 | reset = 0 | pc_out = 00147 | alu_out = 00000
Time = 3285 | reset = 0 | pc_out = 00148 | alu_out = 00000
Time = 3295 | reset = 0 | pc_out = 00149 | alu_out = 00000
Time = 3305 | reset = 0 | pc_out = 0014a | alu_out = 00000
Time = 3315 | reset = 0 | pc_out = 0014b | alu_out = 00000
Time = 3325 | reset = 0 | pc_out = 0014c | alu_out = 00000
Time = 3335 | reset = 0 | pc_out = 0014d | alu_out = 00000
Time = 3345 | reset = 0 | pc_out = 0014e | alu_out = 00000
Time = 3355 | reset = 0 | pc_out = 0014f | alu_out = 00000
Time = 3365 | reset = 0 | pc_out = 00150 | alu_out = 00000
Time = 3375 | reset = 0 | pc_out = 00151 | alu_out = 00000
Time = 3385 | reset = 0 | pc_out = 00152 | alu_out = 00000
Time = 3395 | reset = 0 | pc_out = 00153 | alu_out = 00000
Time = 3405 | reset = 0 | pc_out = 00154 | alu_out = 00000
Time = 3415 | reset = 0 | pc_out = 00155 | alu_out = 00000
Time = 3425 | reset = 0 | pc_out = 00156 | alu_out = 00000
Time = 3435 | reset = 0 | pc_out = 00157 | alu_out = 00000
Time = 3445 | reset = 0 | pc_out = 00158 | alu_out = 00000
Time = 3455 | reset = 0 | pc_out = 00159 | alu_out = 00000
Time = 3465 | reset = 0 | pc_out = 0015a | alu_out = 00000
Time = 3475 | reset = 0 | pc_out = 0015b | alu_out = 00000
Time = 3485 | reset = 0 | pc_out = 0015c | alu_out = 00000
Time = 3495 | reset = 0 | pc_out = 0015d | alu_out = 00000
Time = 3505 | reset = 0 | pc_out = 0015e | alu_out = 00000
Time = 3515 | reset = 0 | pc_out = 0015f | alu_out = 00000
Time = 3525 | reset = 0 | pc_out = 00160 | alu_out = 00000
Time = 3535 | reset = 0 | pc_out = 00161 | alu_out = 00000
Time = 3545 | reset = 0 | pc_out = 00162 | alu_out = 00000
Time = 3555 | reset = 0 | pc_out = 00163 | alu_out = 00000
Time = 3565 | reset = 0 | pc_out = 00164 | alu_out = 00000
Time = 3575 | reset = 0 | pc_out = 00165 | alu_out = 00000
Time = 3585 | reset = 0 | pc_out = 00166 | alu_out = 00000
Time = 3595 | reset = 0 | pc_out = 00167 | alu_out = 00000
Time = 3605 | reset = 0 | pc_out = 00168 | alu_out = 00000
Time = 3615 | reset = 0 | pc_out = 00169 | alu_out = 00000
Time = 3625 | reset = 0 | pc_out = 0016a | alu_out = 00000
Time = 3635 | reset = 0 | pc_out = 0016b | alu_out = 00000
Time = 3645 | reset = 0 | pc_out = 0016c | alu_out = 00000
Time = 3655 | reset = 0 | pc_out = 0016d | alu_out = 00000
Time = 3665 | reset = 0 | pc_out = 0016e | alu_out = 00000
Time = 3675 | reset = 0 | pc_out = 0016f | alu_out = 00000
Time = 3685 | reset = 0 | pc_out = 00170 | alu_out = 00000
Time = 3695 | reset = 0 | pc_out = 00171 | alu_out = 00000
Time = 3705 | reset = 0 | pc_out = 00172 | alu_out = 00000
Time = 3715 | reset = 0 | pc_out = 00173 | alu_out = 00000
Time = 3725 | reset = 0 | pc_out = 00174 | alu_out = 00000
Time = 3735 | reset = 0 | pc_out = 00175 | alu_out = 00000
Time = 3745 | reset = 0 | pc_out = 00176 | alu_out = 00000
Time = 3755 | reset = 0 | pc_out = 00177 | alu_out = 00000
Time = 3765 | reset = 0 | pc_out = 00178 | alu_out = 00000
Time = 3775 | reset = 0 | pc_out = 00179 | alu_out = 00000
Time = 3785 | reset = 0 | pc_out = 0017a | alu_out = 00000
Time = 3795 | reset = 0 | pc_out = 0017b | alu_out = 00000
Time = 3805 | reset = 0 | pc_out = 0017c | alu_out = 00000
Time = 3815 | reset = 0 | pc_out = 0017d | alu_out = 00000
Time = 3825 | reset = 0 | pc_out = 0017e | alu_out = 00000
Time = 3835 | reset = 0 | pc_out = 0017f | alu_out = 00000
Time = 3845 | reset = 0 | pc_out = 00180 | alu_out = 00000
Time = 3855 | reset = 0 | pc_out = 00181 | alu_out = 00000
Time = 3865 | reset = 0 | pc_out = 00182 | alu_out = 00000
